module gitlab.com/gitlab-org/security-products/analyzers/spotbugs/v2

require (
	github.com/gosimple/slug v1.9.0
	github.com/sirupsen/logrus v1.4.2
	github.com/stretchr/testify v1.4.0
	github.com/termie/go-shutil v0.0.0-20140729215957-bcacb06fecae
	github.com/urfave/cli v1.22.1
	gitlab.com/gitlab-org/security-products/analyzers/common/v2 v2.10.3
)

go 1.13
